<svg width="262" height="54" viewBox="0 0 262 54" fill="none" xmlns="http://www.w3.org/2000/svg">
<path d="M34.5361 0L41.3387 14.3901L32.443 19.6228L28.7801 11.2504C27.0359 15.3494 22.8148 25.5358 19.8844 33.4896C42.4899 15.4889 61.3976 12.3842 68.0257 13.0819C67.5896 13.2563 66.2989 13.7621 64.6244 14.3901C52.0658 20.0414 26.9486 42.5597 15.9599 53.1124H0L23.5474 0H34.5361Z" fill="white"/>
<path d="M58.8684 53.6357L48.4029 30.0883L40.2921 36.1059L48.4029 53.6357H58.8684Z" fill="white"/>
<path d="M86.8447 29.7045L83.6262 20.6025C83.4349 20.1242 83.2299 19.5638 83.0112 18.9215C82.8062 18.2792 82.608 17.5822 82.4167 16.8305C82.2254 17.5958 82.0204 18.3065 81.8017 18.9625C81.5967 19.6048 81.3985 20.1652 81.2072 20.6435L78.0092 29.7045H86.8447ZM97.1767 41H92.4002C91.8672 41 91.4299 40.877 91.0882 40.631C90.7602 40.3713 90.5142 40.0433 90.3502 39.647L88.3412 33.9685H76.4922L74.4832 39.647C74.3465 39.9887 74.1074 40.303 73.7657 40.59C73.424 40.8633 72.9935 41 72.4742 41H67.6567L79.2802 11.2545H85.5737L97.1767 41ZM116.844 19.8645L108.541 41H103.416L95.1136 19.8645H99.8081C100.218 19.8645 100.56 19.9602 100.833 20.1515C101.106 20.3428 101.298 20.5888 101.407 20.8895L104.954 31.3445C105.186 32.0552 105.391 32.7522 105.569 33.4355C105.746 34.1052 105.903 34.7817 106.04 35.465C106.19 34.7817 106.354 34.1052 106.532 33.4355C106.723 32.7522 106.942 32.0552 107.188 31.3445L110.858 20.8895C110.953 20.5888 111.138 20.3428 111.411 20.1515C111.684 19.9602 112.006 19.8645 112.375 19.8645H116.844ZM125.072 19.8645V41H119.414V19.8645H125.072ZM125.749 13.858C125.749 14.3363 125.653 14.7805 125.462 15.1905C125.271 15.6005 125.011 15.9627 124.683 16.277C124.369 16.5913 123.993 16.8373 123.555 17.015C123.132 17.1927 122.674 17.2815 122.182 17.2815C121.717 17.2815 121.273 17.1927 120.849 17.015C120.439 16.8373 120.077 16.5913 119.763 16.277C119.449 15.9627 119.196 15.6005 119.004 15.1905C118.827 14.7805 118.738 14.3363 118.738 13.858C118.738 13.3797 118.827 12.9355 119.004 12.5255C119.196 12.1018 119.449 11.7328 119.763 11.4185C120.077 11.1042 120.439 10.8582 120.849 10.6805C121.273 10.5028 121.717 10.414 122.182 10.414C122.674 10.414 123.132 10.5028 123.555 10.6805C123.993 10.8582 124.369 11.1042 124.683 11.4185C125.011 11.7328 125.271 12.1018 125.462 12.5255C125.653 12.9355 125.749 13.3797 125.749 13.858ZM140.95 32.1645C139.57 32.2328 138.422 32.3558 137.506 32.5335C136.591 32.6975 135.859 32.9162 135.313 33.1895C134.78 33.4628 134.397 33.7772 134.165 34.1325C133.946 34.4742 133.837 34.85 133.837 35.26C133.837 36.08 134.062 36.6608 134.513 37.0025C134.978 37.3442 135.62 37.515 136.44 37.515C137.383 37.515 138.196 37.351 138.88 37.023C139.577 36.6813 140.267 36.1552 140.95 35.4445V32.1645ZM129.429 22.796C130.673 21.6753 132.046 20.8417 133.55 20.295C135.053 19.7347 136.679 19.4545 138.429 19.4545C139.686 19.4545 140.807 19.6595 141.791 20.0695C142.788 20.4795 143.629 21.0535 144.312 21.7915C145.009 22.5158 145.542 23.3837 145.911 24.395C146.28 25.4063 146.465 26.5133 146.465 27.716V41H143.882C143.349 41 142.939 40.9248 142.652 40.7745C142.378 40.6242 142.153 40.3098 141.975 39.8315L141.524 38.4785C140.991 38.9432 140.472 39.3532 139.966 39.7085C139.474 40.0638 138.962 40.3645 138.429 40.6105C137.896 40.8428 137.322 41.0205 136.707 41.1435C136.105 41.2665 135.429 41.328 134.677 41.328C133.748 41.328 132.901 41.205 132.135 40.959C131.37 40.713 130.707 40.3508 130.147 39.8725C129.6 39.3805 129.176 38.7723 128.876 38.048C128.575 37.3237 128.425 36.49 128.425 35.547C128.425 34.768 128.623 33.989 129.019 33.21C129.416 32.431 130.092 31.7272 131.049 31.0985C132.019 30.4562 133.304 29.93 134.903 29.52C136.515 29.0963 138.531 28.8572 140.95 28.8025V27.716C140.95 26.3903 140.67 25.42 140.11 24.805C139.549 24.1763 138.743 23.862 137.691 23.862C136.912 23.862 136.263 23.9577 135.743 24.149C135.224 24.3267 134.766 24.5248 134.37 24.7435C133.987 24.9485 133.625 25.1467 133.283 25.338C132.942 25.5157 132.545 25.6045 132.094 25.6045C131.698 25.6045 131.363 25.5088 131.09 25.3175C130.83 25.1125 130.611 24.8733 130.434 24.6L129.429 22.796ZM157.859 41.328C156.902 41.328 156.055 41.1913 155.317 40.918C154.579 40.631 153.957 40.2278 153.451 39.7085C152.946 39.1892 152.563 38.5605 152.303 37.8225C152.044 37.0845 151.914 36.2508 151.914 35.3215V23.9235H149.925C149.625 23.9235 149.365 23.8278 149.146 23.6365C148.941 23.4452 148.839 23.1582 148.839 22.7755V20.5615L152.221 19.9465L153.369 14.473C153.52 13.858 153.937 13.5505 154.62 13.5505H157.572V19.9875H163.025V23.9235H157.572V34.9525C157.572 35.5402 157.709 36.0048 157.982 36.3465C158.269 36.6882 158.672 36.859 159.191 36.859C159.465 36.859 159.697 36.8317 159.888 36.777C160.08 36.7087 160.244 36.6403 160.38 36.572C160.517 36.49 160.64 36.4217 160.749 36.367C160.872 36.2987 160.995 36.2645 161.118 36.2645C161.282 36.2645 161.419 36.3055 161.528 36.3875C161.638 36.4558 161.747 36.5788 161.856 36.7565L163.558 39.4625C162.779 40.0775 161.897 40.5422 160.913 40.8565C159.929 41.1708 158.911 41.328 157.859 41.328ZM175.388 19.5365C176.974 19.5365 178.416 19.7893 179.714 20.295C181.012 20.8007 182.126 21.525 183.055 22.468C183.985 23.3973 184.702 24.5317 185.208 25.871C185.714 27.2103 185.966 28.7205 185.966 30.4015C185.966 32.0825 185.714 33.5995 185.208 34.9525C184.702 36.2918 183.985 37.433 183.055 38.376C182.126 39.319 181.012 40.0433 179.714 40.549C178.416 41.0547 176.974 41.3075 175.388 41.3075C173.789 41.3075 172.334 41.0547 171.022 40.549C169.724 40.0433 168.61 39.319 167.68 38.376C166.751 37.433 166.027 36.2918 165.507 34.9525C165.002 33.5995 164.749 32.0825 164.749 30.4015C164.749 28.7205 165.002 27.2103 165.507 25.871C166.027 24.5317 166.751 23.3973 167.68 22.468C168.61 21.525 169.724 20.8007 171.022 20.295C172.334 19.7893 173.789 19.5365 175.388 19.5365ZM175.388 37.064C177.001 37.064 178.197 36.5105 178.976 35.4035C179.755 34.2828 180.144 32.6223 180.144 30.422C180.144 28.2353 179.755 26.5885 178.976 25.4815C178.197 24.3608 177.001 23.8005 175.388 23.8005C173.735 23.8005 172.518 24.3608 171.739 25.4815C170.96 26.5885 170.571 28.2353 170.571 30.422C170.571 32.6223 170.96 34.2828 171.739 35.4035C172.518 36.5105 173.735 37.064 175.388 37.064ZM194.828 23.3495C195.498 22.1468 196.27 21.197 197.145 20.5C198.02 19.803 199.045 19.4545 200.22 19.4545C201.177 19.4545 201.956 19.68 202.557 20.131L202.188 24.313C202.12 24.5863 202.01 24.7777 201.86 24.887C201.723 24.9827 201.532 25.0305 201.286 25.0305C201.067 25.0305 200.753 25.0032 200.343 24.9485C199.933 24.8802 199.55 24.846 199.195 24.846C198.676 24.846 198.211 24.9212 197.801 25.0715C197.405 25.2218 197.049 25.4337 196.735 25.707C196.421 25.9803 196.134 26.3152 195.874 26.7115C195.628 27.1078 195.396 27.5588 195.177 28.0645V41H189.519V19.8645H192.86C193.434 19.8645 193.831 19.967 194.049 20.172C194.268 20.377 194.425 20.7323 194.521 21.238L194.828 23.3495ZM210.632 35.424C211.165 36.039 211.739 36.4695 212.354 36.7155C212.983 36.9615 213.632 37.0845 214.302 37.0845C214.999 37.0845 215.627 36.9615 216.188 36.7155C216.762 36.4558 217.254 36.0527 217.664 35.506C218.074 34.9457 218.388 34.2213 218.607 33.333C218.825 32.4447 218.935 31.3718 218.935 30.1145C218.935 28.9938 218.846 28.044 218.668 27.265C218.49 26.4723 218.224 25.8232 217.869 25.3175C217.527 24.8118 217.103 24.4428 216.598 24.2105C216.092 23.9782 215.504 23.862 214.835 23.862C213.946 23.862 213.174 24.0602 212.518 24.4565C211.876 24.8392 211.247 25.4063 210.632 26.158V35.424ZM210.632 22.304C211.466 21.4703 212.388 20.8007 213.4 20.295C214.411 19.7893 215.545 19.5365 216.803 19.5365C218.019 19.5365 219.112 19.7825 220.083 20.2745C221.067 20.7528 221.9 21.443 222.584 22.345C223.281 23.247 223.814 24.3403 224.183 25.625C224.565 26.896 224.757 28.3242 224.757 29.9095C224.757 31.6178 224.538 33.1758 224.101 34.5835C223.677 35.9775 223.069 37.1733 222.276 38.171C221.483 39.1687 220.534 39.9408 219.427 40.4875C218.333 41.0342 217.11 41.3075 215.757 41.3075C215.101 41.3075 214.513 41.2392 213.994 41.1025C213.475 40.9795 212.996 40.8018 212.559 40.5695C212.122 40.3372 211.719 40.0638 211.35 39.7495C210.981 39.4215 210.632 39.0593 210.304 38.663L210.079 39.934C209.983 40.3303 209.826 40.6105 209.607 40.7745C209.388 40.9248 209.095 41 208.726 41H204.974V10.4345H210.632V22.304ZM234.219 19.8645V41H228.561V19.8645H234.219ZM234.895 13.858C234.895 14.3363 234.8 14.7805 234.608 15.1905C234.417 15.6005 234.157 15.9627 233.829 16.277C233.515 16.5913 233.139 16.8373 232.702 17.015C232.278 17.1927 231.82 17.2815 231.328 17.2815C230.864 17.2815 230.42 17.1927 229.996 17.015C229.586 16.8373 229.224 16.5913 228.909 16.277C228.595 15.9627 228.342 15.6005 228.151 15.1905C227.973 14.7805 227.884 14.3363 227.884 13.858C227.884 13.3797 227.973 12.9355 228.151 12.5255C228.342 12.1018 228.595 11.7328 228.909 11.4185C229.224 11.1042 229.586 10.8582 229.996 10.6805C230.42 10.5028 230.864 10.414 231.328 10.414C231.82 10.414 232.278 10.5028 232.702 10.6805C233.139 10.8582 233.515 11.1042 233.829 11.4185C234.157 11.7328 234.417 12.1018 234.608 12.5255C234.8 12.9355 234.895 13.3797 234.895 13.858ZM246.345 41.328C245.389 41.328 244.541 41.1913 243.803 40.918C243.065 40.631 242.443 40.2278 241.938 39.7085C241.432 39.1892 241.049 38.5605 240.79 37.8225C240.53 37.0845 240.4 36.2508 240.4 35.3215V23.9235H238.412C238.111 23.9235 237.851 23.8278 237.633 23.6365C237.428 23.4452 237.325 23.1582 237.325 22.7755V20.5615L240.708 19.9465L241.856 14.473C242.006 13.858 242.423 13.5505 243.106 13.5505H246.058V19.9875H251.511V23.9235H246.058V34.9525C246.058 35.5402 246.195 36.0048 246.468 36.3465C246.755 36.6882 247.158 36.859 247.678 36.859C247.951 36.859 248.183 36.8317 248.375 36.777C248.566 36.7087 248.73 36.6403 248.867 36.572C249.003 36.49 249.126 36.4217 249.236 36.367C249.359 36.2987 249.482 36.2645 249.605 36.2645C249.769 36.2645 249.905 36.3055 250.015 36.3875C250.124 36.4558 250.233 36.5788 250.343 36.7565L252.044 39.4625C251.265 40.0775 250.384 40.5422 249.4 40.8565C248.416 41.1708 247.398 41.328 246.345 41.328Z" fill="white"/>
</svg>
